sim/work/transcript
# //  Questa Sim-64
# //  Version 10.6b linux_x86_64 May 25 2017
# //
# //  Copyright 1991-2017 Mentor Graphics Corporation
# //  All Rights Reserved.
# //
# //  QuestaSim and its associated documentation contain trade
# //  secrets and commercial or financial information that are the property of
# //  Mentor Graphics Corporation and are privileged, confidential,
# //  and exempt from disclosure under the Freedom of Information Act,
# //  5 U.S.C. Section 552. Furthermore, this information
# //  is prohibited from disclosure under the Trade Secrets Act,
# //  18 U.S.C. Section 1905.
# //
# vsim -debugDB top -do "add wave sim:/top/* ; run -all" 
# Start time: 21:43:14 on Feb 02,2023
# ** Warning: (vsim-4308) Enabling visibility using +acc is recommended with debug flow.
# ** Note: (vsim-3813) Design is being optimized due to module recompilation...
# ** Note: (vsim-8611) Generating debug db.
# ** Warning: (vopt-4308) Enabling visibility using +acc is recommended with debug flow.
# Loading work.top(fast)
# Loading sv_std.std
# Loading work.adder_1c(fast)
# Loading work.FA(fast)
# ** Note: (vsim-8900) Creating design debug database vsim.dbg.
# add wave sim:/top/* 
#  run -all
# a=0000, b=0000, cin=0, sum =0000, carry= 0
# a=0000, b=0000, cin=1, sum =0001, carry= 0
# a=0000, b=0001, cin=0, sum =0001, carry= 0
# a=0000, b=0001, cin=1, sum =0010, carry= 0
# a=0000, b=0010, cin=0, sum =0010, carry= 0
# a=0000, b=0010, cin=1, sum =0011, carry= 0
# a=0000, b=0011, cin=0, sum =0011, carry= 0
# a=0000, b=0011, cin=1, sum =0100, carry= 0
# a=0000, b=0100, cin=0, sum =0100, carry= 0
# a=0000, b=0100, cin=1, sum =0101, carry= 0
# a=0000, b=0101, cin=0, sum =0101, carry= 0
# a=0000, b=0101, cin=1, sum =0110, carry= 0
# a=0000, b=0110, cin=0, sum =0110, carry= 0
# a=0000, b=0110, cin=1, sum =0111, carry= 0
# a=0000, b=0111, cin=0, sum =0111, carry= 0
# a=0000, b=0111, cin=1, sum =1000, carry= 0
# a=0000, b=1000, cin=0, sum =1000, carry= 0
# a=0000, b=1000, cin=1, sum =1001, carry= 0
# a=0000, b=1001, cin=0, sum =1001, carry= 0
# a=0000, b=1001, cin=1, sum =1010, carry= 0
# a=0000, b=1010, cin=0, sum =1010, carry= 0
# a=0000, b=1010, cin=1, sum =1011, carry= 0
# a=0000, b=1011, cin=0, sum =1011, carry= 0
# a=0000, b=1011, cin=1, sum =1100, carry= 0
# a=0000, b=1100, cin=0, sum =1100, carry= 0
# a=0000, b=1100, cin=1, sum =1101, carry= 0
# a=0000, b=1101, cin=0, sum =1101, carry= 0
# a=0000, b=1101, cin=1, sum =1110, carry= 0
# a=0000, b=1110, cin=0, sum =1110, carry= 0
# a=0000, b=1110, cin=1, sum =1111, carry= 0
# a=0000, b=1111, cin=0, sum =1111, carry= 0
# a=0000, b=1111, cin=1, sum =0000, carry= 1
# a=0001, b=0000, cin=0, sum =0001, carry= 0
# a=0001, b=0000, cin=1, sum =0010, carry= 0
# a=0001, b=0001, cin=0, sum =0010, carry= 0
# a=0001, b=0001, cin=1, sum =0011, carry= 0
# a=0001, b=0010, cin=0, sum =0011, carry= 0
# a=0001, b=0010, cin=1, sum =0100, carry= 0
# a=0001, b=0011, cin=0, sum =0100, carry= 0
# a=0001, b=0011, cin=1, sum =0101, carry= 0
# a=0001, b=0100, cin=0, sum =0101, carry= 0
# a=0001, b=0100, cin=1, sum =0110, carry= 0
# a=0001, b=0101, cin=0, sum =0110, carry= 0
# a=0001, b=0101, cin=1, sum =0111, carry= 0
# a=0001, b=0110, cin=0, sum =0111, carry= 0
# a=0001, b=0110, cin=1, sum =1000, carry= 0
# a=0001, b=0111, cin=0, sum =1000, carry= 0
# a=0001, b=0111, cin=1, sum =1001, carry= 0
# a=0001, b=1000, cin=0, sum =1001, carry= 0
# a=0001, b=1000, cin=1, sum =1010, carry= 0
# a=0001, b=1001, cin=0, sum =1010, carry= 0
# a=0001, b=1001, cin=1, sum =1011, carry= 0
# a=0001, b=1010, cin=0, sum =1011, carry= 0
# a=0001, b=1010, cin=1, sum =1100, carry= 0
# a=0001, b=1011, cin=0, sum =1100, carry= 0
# a=0001, b=1011, cin=1, sum =1101, carry= 0
# a=0001, b=1100, cin=0, sum =1101, carry= 0
# a=0001, b=1100, cin=1, sum =1110, carry= 0
# a=0001, b=1101, cin=0, sum =1110, carry= 0
# a=0001, b=1101, cin=1, sum =1111, carry= 0
# a=0001, b=1110, cin=0, sum =1111, carry= 0
# a=0001, b=1110, cin=1, sum =0000, carry= 1
# a=0001, b=1111, cin=0, sum =0000, carry= 1
# a=0001, b=1111, cin=1, sum =0001, carry= 1
# a=0010, b=0000, cin=0, sum =0010, carry= 0
# a=0010, b=0000, cin=1, sum =0011, carry= 0
# a=0010, b=0001, cin=0, sum =0011, carry= 0
# a=0010, b=0001, cin=1, sum =0100, carry= 0
# a=0010, b=0010, cin=0, sum =0100, carry= 0
# a=0010, b=0010, cin=1, sum =0101, carry= 0
# a=0010, b=0011, cin=0, sum =0101, carry= 0
# a=0010, b=0011, cin=1, sum =0110, carry= 0
# a=0010, b=0100, cin=0, sum =0110, carry= 0
# a=0010, b=0100, cin=1, sum =0111, carry= 0
# a=0010, b=0101, cin=0, sum =0111, carry= 0
# a=0010, b=0101, cin=1, sum =1000, carry= 0
# a=0010, b=0110, cin=0, sum =1000, carry= 0
# a=0010, b=0110, cin=1, sum =1001, carry= 0
# a=0010, b=0111, cin=0, sum =1001, carry= 0
# a=0010, b=0111, cin=1, sum =1010, carry= 0
# a=0010, b=1000, cin=0, sum =1010, carry= 0
# a=0010, b=1000, cin=1, sum =1011, carry= 0
# a=0010, b=1001, cin=0, sum =1011, carry= 0
# a=0010, b=1001, cin=1, sum =1100, carry= 0
# a=0010, b=1010, cin=0, sum =1100, carry= 0
# a=0010, b=1010, cin=1, sum =1101, carry= 0
# a=0010, b=1011, cin=0, sum =1101, carry= 0
# a=0010, b=1011, cin=1, sum =1110, carry= 0
# a=0010, b=1100, cin=0, sum =1110, carry= 0
# a=0010, b=1100, cin=1, sum =1111, carry= 0
# a=0010, b=1101, cin=0, sum =1111, carry= 0
# a=0010, b=1101, cin=1, sum =0000, carry= 1
# a=0010, b=1110, cin=0, sum =0000, carry= 1
# a=0010, b=1110, cin=1, sum =0001, carry= 1
# a=0010, b=1111, cin=0, sum =0001, carry= 1
# a=0010, b=1111, cin=1, sum =0010, carry= 1
# a=0011, b=0000, cin=0, sum =0011, carry= 0
# a=0011, b=0000, cin=1, sum =0100, carry= 0
# a=0011, b=0001, cin=0, sum =0100, carry= 0
# a=0011, b=0001, cin=1, sum =0101, carry= 0
# a=0011, b=0010, cin=0, sum =0101, carry= 0
# a=0011, b=0010, cin=1, sum =0110, carry= 0
# a=0011, b=0011, cin=0, sum =0110, carry= 0
# a=0011, b=0011, cin=1, sum =0111, carry= 0
# a=0011, b=0100, cin=0, sum =0111, carry= 0
# a=0011, b=0100, cin=1, sum =1000, carry= 0
# a=0011, b=0101, cin=0, sum =1000, carry= 0
# a=0011, b=0101, cin=1, sum =1001, carry= 0
# a=0011, b=0110, cin=0, sum =1001, carry= 0
# a=0011, b=0110, cin=1, sum =1010, carry= 0
# a=0011, b=0111, cin=0, sum =1010, carry= 0
# a=0011, b=0111, cin=1, sum =1011, carry= 0
# a=0011, b=1000, cin=0, sum =1011, carry= 0
# a=0011, b=1000, cin=1, sum =1100, carry= 0
# a=0011, b=1001, cin=0, sum =1100, carry= 0
# a=0011, b=1001, cin=1, sum =1101, carry= 0
# a=0011, b=1010, cin=0, sum =1101, carry= 0
# a=0011, b=1010, cin=1, sum =1110, carry= 0
# a=0011, b=1011, cin=0, sum =1110, carry= 0
# a=0011, b=1011, cin=1, sum =1111, carry= 0
# a=0011, b=1100, cin=0, sum =1111, carry= 0
# a=0011, b=1100, cin=1, sum =0000, carry= 1
# a=0011, b=1101, cin=0, sum =0000, carry= 1
# a=0011, b=1101, cin=1, sum =0001, carry= 1
# a=0011, b=1110, cin=0, sum =0001, carry= 1
# a=0011, b=1110, cin=1, sum =0010, carry= 1
# a=0011, b=1111, cin=0, sum =0010, carry= 1
# a=0011, b=1111, cin=1, sum =0011, carry= 1
# a=0100, b=0000, cin=0, sum =0100, carry= 0
# a=0100, b=0000, cin=1, sum =0101, carry= 0
# a=0100, b=0001, cin=0, sum =0101, carry= 0
# a=0100, b=0001, cin=1, sum =0110, carry= 0
# a=0100, b=0010, cin=0, sum =0110, carry= 0
# a=0100, b=0010, cin=1, sum =0111, carry= 0
# a=0100, b=0011, cin=0, sum =0111, carry= 0
# a=0100, b=0011, cin=1, sum =1000, carry= 0
# a=0100, b=0100, cin=0, sum =1000, carry= 0
# a=0100, b=0100, cin=1, sum =1001, carry= 0
# a=0100, b=0101, cin=0, sum =1001, carry= 0
# a=0100, b=0101, cin=1, sum =1010, carry= 0
# a=0100, b=0110, cin=0, sum =1010, carry= 0
# a=0100, b=0110, cin=1, sum =1011, carry= 0
# a=0100, b=0111, cin=0, sum =1011, carry= 0
# a=0100, b=0111, cin=1, sum =1100, carry= 0
# a=0100, b=1000, cin=0, sum =1100, carry= 0
# a=0100, b=1000, cin=1, sum =1101, carry= 0
# a=0100, b=1001, cin=0, sum =1101, carry= 0
# a=0100, b=1001, cin=1, sum =1110, carry= 0
# a=0100, b=1010, cin=0, sum =1110, carry= 0
# a=0100, b=1010, cin=1, sum =1111, carry= 0
# a=0100, b=1011, cin=0, sum =1111, carry= 0
# a=0100, b=1011, cin=1, sum =0000, carry= 1
# a=0100, b=1100, cin=0, sum =0000, carry= 1
# a=0100, b=1100, cin=1, sum =0001, carry= 1
# a=0100, b=1101, cin=0, sum =0001, carry= 1
# a=0100, b=1101, cin=1, sum =0010, carry= 1
# a=0100, b=1110, cin=0, sum =0010, carry= 1
# a=0100, b=1110, cin=1, sum =0011, carry= 1
# a=0100, b=1111, cin=0, sum =0011, carry= 1
# a=0100, b=1111, cin=1, sum =0100, carry= 1
# a=0101, b=0000, cin=0, sum =0101, carry= 0
# a=0101, b=0000, cin=1, sum =0110, carry= 0
# a=0101, b=0001, cin=0, sum =0110, carry= 0
# a=0101, b=0001, cin=1, sum =0111, carry= 0
# a=0101, b=0010, cin=0, sum =0111, carry= 0
# a=0101, b=0010, cin=1, sum =1000, carry= 0
# a=0101, b=0011, cin=0, sum =1000, carry= 0
# a=0101, b=0011, cin=1, sum =1001, carry= 0
# a=0101, b=0100, cin=0, sum =1001, carry= 0
# a=0101, b=0100, cin=1, sum =1010, carry= 0
# a=0101, b=0101, cin=0, sum =1010, carry= 0
# a=0101, b=0101, cin=1, sum =1011, carry= 0
# a=0101, b=0110, cin=0, sum =1011, carry= 0
# a=0101, b=0110, cin=1, sum =1100, carry= 0
# a=0101, b=0111, cin=0, sum =1100, carry= 0
# a=0101, b=0111, cin=1, sum =1101, carry= 0
# a=0101, b=1000, cin=0, sum =1101, carry= 0
# a=0101, b=1000, cin=1, sum =1110, carry= 0
# a=0101, b=1001, cin=0, sum =1110, carry= 0
# a=0101, b=1001, cin=1, sum =1111, carry= 0
# a=0101, b=1010, cin=0, sum =1111, carry= 0
# a=0101, b=1010, cin=1, sum =0000, carry= 1
# a=0101, b=1011, cin=0, sum =0000, carry= 1
# a=0101, b=1011, cin=1, sum =0001, carry= 1
# a=0101, b=1100, cin=0, sum =0001, carry= 1
# a=0101, b=1100, cin=1, sum =0010, carry= 1
# a=0101, b=1101, cin=0, sum =0010, carry= 1
# a=0101, b=1101, cin=1, sum =0011, carry= 1
# a=0101, b=1110, cin=0, sum =0011, carry= 1
# a=0101, b=1110, cin=1, sum =0100, carry= 1
# a=0101, b=1111, cin=0, sum =0100, carry= 1
# a=0101, b=1111, cin=1, sum =0101, carry= 1
# a=0110, b=0000, cin=0, sum =0110, carry= 0
# a=0110, b=0000, cin=1, sum =0111, carry= 0
# a=0110, b=0001, cin=0, sum =0111, carry= 0
# a=0110, b=0001, cin=1, sum =1000, carry= 0
# a=0110, b=0010, cin=0, sum =1000, carry= 0
# a=0110, b=0010, cin=1, sum =1001, carry= 0
# a=0110, b=0011, cin=0, sum =1001, carry= 0
# a=0110, b=0011, cin=1, sum =1010, carry= 0
# a=0110, b=0100, cin=0, sum =1010, carry= 0
# a=0110, b=0100, cin=1, sum =1011, carry= 0
# a=0110, b=0101, cin=0, sum =1011, carry= 0
# a=0110, b=0101, cin=1, sum =1100, carry= 0
# a=0110, b=0110, cin=0, sum =1100, carry= 0
# a=0110, b=0110, cin=1, sum =1101, carry= 0
# a=0110, b=0111, cin=0, sum =1101, carry= 0
# a=0110, b=0111, cin=1, sum =1110, carry= 0
# a=0110, b=1000, cin=0, sum =1110, carry= 0
# a=0110, b=1000, cin=1, sum =1111, carry= 0
# a=0110, b=1001, cin=0, sum =1111, carry= 0
# a=0110, b=1001, cin=1, sum =0000, carry= 1
# a=0110, b=1010, cin=0, sum =0000, carry= 1
# a=0110, b=1010, cin=1, sum =0001, carry= 1
# a=0110, b=1011, cin=0, sum =0001, carry= 1
# a=0110, b=1011, cin=1, sum =0010, carry= 1
# a=0110, b=1100, cin=0, sum =0010, carry= 1
# a=0110, b=1100, cin=1, sum =0011, carry= 1
# a=0110, b=1101, cin=0, sum =0011, carry= 1
# a=0110, b=1101, cin=1, sum =0100, carry= 1
# a=0110, b=1110, cin=0, sum =0100, carry= 1
# a=0110, b=1110, cin=1, sum =0101, carry= 1
# a=0110, b=1111, cin=0, sum =0101, carry= 1
# a=0110, b=1111, cin=1, sum =0110, carry= 1
# a=0111, b=0000, cin=0, sum =0111, carry= 0
# a=0111, b=0000, cin=1, sum =1000, carry= 0
# a=0111, b=0001, cin=0, sum =1000, carry= 0
# a=0111, b=0001, cin=1, sum =1001, carry= 0
# a=0111, b=0010, cin=0, sum =1001, carry= 0
# a=0111, b=0010, cin=1, sum =1010, carry= 0
# a=0111, b=0011, cin=0, sum =1010, carry= 0
# a=0111, b=0011, cin=1, sum =1011, carry= 0
# a=0111, b=0100, cin=0, sum =1011, carry= 0
# a=0111, b=0100, cin=1, sum =1100, carry= 0
# a=0111, b=0101, cin=0, sum =1100, carry= 0
# a=0111, b=0101, cin=1, sum =1101, carry= 0
# a=0111, b=0110, cin=0, sum =1101, carry= 0
# a=0111, b=0110, cin=1, sum =1110, carry= 0
# a=0111, b=0111, cin=0, sum =1110, carry= 0
# a=0111, b=0111, cin=1, sum =1111, carry= 0
# a=0111, b=1000, cin=0, sum =1111, carry= 0
# a=0111, b=1000, cin=1, sum =0000, carry= 1
# a=0111, b=1001, cin=0, sum =0000, carry= 1
# a=0111, b=1001, cin=1, sum =0001, carry= 1
# a=0111, b=1010, cin=0, sum =0001, carry= 1
# a=0111, b=1010, cin=1, sum =0010, carry= 1
# a=0111, b=1011, cin=0, sum =0010, carry= 1
# a=0111, b=1011, cin=1, sum =0011, carry= 1
# a=0111, b=1100, cin=0, sum =0011, carry= 1
# a=0111, b=1100, cin=1, sum =0100, carry= 1
# a=0111, b=1101, cin=0, sum =0100, carry= 1
# a=0111, b=1101, cin=1, sum =0101, carry= 1
# a=0111, b=1110, cin=0, sum =0101, carry= 1
# a=0111, b=1110, cin=1, sum =0110, carry= 1
# a=0111, b=1111, cin=0, sum =0110, carry= 1
# a=0111, b=1111, cin=1, sum =0111, carry= 1
# a=1000, b=0000, cin=0, sum =1000, carry= 0
# a=1000, b=0000, cin=1, sum =1001, carry= 0
# a=1000, b=0001, cin=0, sum =1001, carry= 0
# a=1000, b=0001, cin=1, sum =1010, carry= 0
# a=1000, b=0010, cin=0, sum =1010, carry= 0
# a=1000, b=0010, cin=1, sum =1011, carry= 0
# a=1000, b=0011, cin=0, sum =1011, carry= 0
# a=1000, b=0011, cin=1, sum =1100, carry= 0
# a=1000, b=0100, cin=0, sum =1100, carry= 0
# a=1000, b=0100, cin=1, sum =1101, carry= 0
# a=1000, b=0101, cin=0, sum =1101, carry= 0
# a=1000, b=0101, cin=1, sum =1110, carry= 0
# a=1000, b=0110, cin=0, sum =1110, carry= 0
# a=1000, b=0110, cin=1, sum =1111, carry= 0
# a=1000, b=0111, cin=0, sum =1111, carry= 0
# a=1000, b=0111, cin=1, sum =0000, carry= 1
# a=1000, b=1000, cin=0, sum =0000, carry= 1
# a=1000, b=1000, cin=1, sum =0001, carry= 1
# a=1000, b=1001, cin=0, sum =0001, carry= 1
# a=1000, b=1001, cin=1, sum =0010, carry= 1
# a=1000, b=1010, cin=0, sum =0010, carry= 1
# a=1000, b=1010, cin=1, sum =0011, carry= 1
# a=1000, b=1011, cin=0, sum =0011, carry= 1
# a=1000, b=1011, cin=1, sum =0100, carry= 1
# a=1000, b=1100, cin=0, sum =0100, carry= 1
# a=1000, b=1100, cin=1, sum =0101, carry= 1
# a=1000, b=1101, cin=0, sum =0101, carry= 1
# a=1000, b=1101, cin=1, sum =0110, carry= 1
# a=1000, b=1110, cin=0, sum =0110, carry= 1
# a=1000, b=1110, cin=1, sum =0111, carry= 1
# a=1000, b=1111, cin=0, sum =0111, carry= 1
# a=1000, b=1111, cin=1, sum =1000, carry= 1
# a=1001, b=0000, cin=0, sum =1001, carry= 0
# a=1001, b=0000, cin=1, sum =1010, carry= 0
# a=1001, b=0001, cin=0, sum =1010, carry= 0
# a=1001, b=0001, cin=1, sum =1011, carry= 0
# a=1001, b=0010, cin=0, sum =1011, carry= 0
# a=1001, b=0010, cin=1, sum =1100, carry= 0
# a=1001, b=0011, cin=0, sum =1100, carry= 0
# a=1001, b=0011, cin=1, sum =1101, carry= 0
# a=1001, b=0100, cin=0, sum =1101, carry= 0
# a=1001, b=0100, cin=1, sum =1110, carry= 0
# a=1001, b=0101, cin=0, sum =1110, carry= 0
# a=1001, b=0101, cin=1, sum =1111, carry= 0
# a=1001, b=0110, cin=0, sum =1111, carry= 0
# a=1001, b=0110, cin=1, sum =0000, carry= 1
# a=1001, b=0111, cin=0, sum =0000, carry= 1
# a=1001, b=0111, cin=1, sum =0001, carry= 1
# a=1001, b=1000, cin=0, sum =0001, carry= 1
# a=1001, b=1000, cin=1, sum =0010, carry= 1
# a=1001, b=1001, cin=0, sum =0010, carry= 1
# a=1001, b=1001, cin=1, sum =0011, carry= 1
# a=1001, b=1010, cin=0, sum =0011, carry= 1
# a=1001, b=1010, cin=1, sum =0100, carry= 1
# a=1001, b=1011, cin=0, sum =0100, carry= 1
# a=1001, b=1011, cin=1, sum =0101, carry= 1
# a=1001, b=1100, cin=0, sum =0101, carry= 1
# a=1001, b=1100, cin=1, sum =0110, carry= 1
# a=1001, b=1101, cin=0, sum =0110, carry= 1
# a=1001, b=1101, cin=1, sum =0111, carry= 1
# a=1001, b=1110, cin=0, sum =0111, carry= 1
# a=1001, b=1110, cin=1, sum =1000, carry= 1
# a=1001, b=1111, cin=0, sum =1000, carry= 1
# a=1001, b=1111, cin=1, sum =1001, carry= 1
# a=1010, b=0000, cin=0, sum =1010, carry= 0
# a=1010, b=0000, cin=1, sum =1011, carry= 0
# a=1010, b=0001, cin=0, sum =1011, carry= 0
# a=1010, b=0001, cin=1, sum =1100, carry= 0
# a=1010, b=0010, cin=0, sum =1100, carry= 0
# a=1010, b=0010, cin=1, sum =1101, carry= 0
# a=1010, b=0011, cin=0, sum =1101, carry= 0
# a=1010, b=0011, cin=1, sum =1110, carry= 0
# a=1010, b=0100, cin=0, sum =1110, carry= 0
# a=1010, b=0100, cin=1, sum =1111, carry= 0
# a=1010, b=0101, cin=0, sum =1111, carry= 0
# a=1010, b=0101, cin=1, sum =0000, carry= 1
# a=1010, b=0110, cin=0, sum =0000, carry= 1
# a=1010, b=0110, cin=1, sum =0001, carry= 1
# a=1010, b=0111, cin=0, sum =0001, carry= 1
# a=1010, b=0111, cin=1, sum =0010, carry= 1
# a=1010, b=1000, cin=0, sum =0010, carry= 1
# a=1010, b=1000, cin=1, sum =0011, carry= 1
# a=1010, b=1001, cin=0, sum =0011, carry= 1
# a=1010, b=1001, cin=1, sum =0100, carry= 1
# a=1010, b=1010, cin=0, sum =0100, carry= 1
# a=1010, b=1010, cin=1, sum =0101, carry= 1
# a=1010, b=1011, cin=0, sum =0101, carry= 1
# a=1010, b=1011, cin=1, sum =0110, carry= 1
# a=1010, b=1100, cin=0, sum =0110, carry= 1
# a=1010, b=1100, cin=1, sum =0111, carry= 1
# a=1010, b=1101, cin=0, sum =0111, carry= 1
# a=1010, b=1101, cin=1, sum =1000, carry= 1
# a=1010, b=1110, cin=0, sum =1000, carry= 1
# a=1010, b=1110, cin=1, sum =1001, carry= 1
# a=1010, b=1111, cin=0, sum =1001, carry= 1
# a=1010, b=1111, cin=1, sum =1010, carry= 1
# a=1011, b=0000, cin=0, sum =1011, carry= 0
# a=1011, b=0000, cin=1, sum =1100, carry= 0
# a=1011, b=0001, cin=0, sum =1100, carry= 0
# a=1011, b=0001, cin=1, sum =1101, carry= 0
# a=1011, b=0010, cin=0, sum =1101, carry= 0
# a=1011, b=0010, cin=1, sum =1110, carry= 0
# a=1011, b=0011, cin=0, sum =1110, carry= 0
# a=1011, b=0011, cin=1, sum =1111, carry= 0
# a=1011, b=0100, cin=0, sum =1111, carry= 0
# a=1011, b=0100, cin=1, sum =0000, carry= 1
# a=1011, b=0101, cin=0, sum =0000, carry= 1
# a=1011, b=0101, cin=1, sum =0001, carry= 1
# a=1011, b=0110, cin=0, sum =0001, carry= 1
# a=1011, b=0110, cin=1, sum =0010, carry= 1
# a=1011, b=0111, cin=0, sum =0010, carry= 1
# a=1011, b=0111, cin=1, sum =0011, carry= 1
# a=1011, b=1000, cin=0, sum =0011, carry= 1
# a=1011, b=1000, cin=1, sum =0100, carry= 1
# a=1011, b=1001, cin=0, sum =0100, carry= 1
# a=1011, b=1001, cin=1, sum =0101, carry= 1
# a=1011, b=1010, cin=0, sum =0101, carry= 1
# a=1011, b=1010, cin=1, sum =0110, carry= 1
# a=1011, b=1011, cin=0, sum =0110, carry= 1
# a=1011, b=1011, cin=1, sum =0111, carry= 1
# a=1011, b=1100, cin=0, sum =0111, carry= 1
# a=1011, b=1100, cin=1, sum =1000, carry= 1
# a=1011, b=1101, cin=0, sum =1000, carry= 1
# a=1011, b=1101, cin=1, sum =1001, carry= 1
# a=1011, b=1110, cin=0, sum =1001, carry= 1
# a=1011, b=1110, cin=1, sum =1010, carry= 1
# a=1011, b=1111, cin=0, sum =1010, carry= 1
# a=1011, b=1111, cin=1, sum =1011, carry= 1
# a=1100, b=0000, cin=0, sum =1100, carry= 0
# a=1100, b=0000, cin=1, sum =1101, carry= 0
# a=1100, b=0001, cin=0, sum =1101, carry= 0
# a=1100, b=0001, cin=1, sum =1110, carry= 0
# a=1100, b=0010, cin=0, sum =1110, carry= 0
# a=1100, b=0010, cin=1, sum =1111, carry= 0
# a=1100, b=0011, cin=0, sum =1111, carry= 0
# a=1100, b=0011, cin=1, sum =0000, carry= 1
# a=1100, b=0100, cin=0, sum =0000, carry= 1
# a=1100, b=0100, cin=1, sum =0001, carry= 1
# a=1100, b=0101, cin=0, sum =0001, carry= 1
# a=1100, b=0101, cin=1, sum =0010, carry= 1
# a=1100, b=0110, cin=0, sum =0010, carry= 1
# a=1100, b=0110, cin=1, sum =0011, carry= 1
# a=1100, b=0111, cin=0, sum =0011, carry= 1
# a=1100, b=0111, cin=1, sum =0100, carry= 1
# a=1100, b=1000, cin=0, sum =0100, carry= 1
# a=1100, b=1000, cin=1, sum =0101, carry= 1
# a=1100, b=1001, cin=0, sum =0101, carry= 1
# a=1100, b=1001, cin=1, sum =0110, carry= 1
# a=1100, b=1010, cin=0, sum =0110, carry= 1
# a=1100, b=1010, cin=1, sum =0111, carry= 1
# a=1100, b=1011, cin=0, sum =0111, carry= 1
# a=1100, b=1011, cin=1, sum =1000, carry= 1
# a=1100, b=1100, cin=0, sum =1000, carry= 1
# a=1100, b=1100, cin=1, sum =1001, carry= 1
# a=1100, b=1101, cin=0, sum =1001, carry= 1
# a=1100, b=1101, cin=1, sum =1010, carry= 1
# a=1100, b=1110, cin=0, sum =1010, carry= 1
# a=1100, b=1110, cin=1, sum =1011, carry= 1
# a=1100, b=1111, cin=0, sum =1011, carry= 1
# a=1100, b=1111, cin=1, sum =1100, carry= 1
# a=1101, b=0000, cin=0, sum =1101, carry= 0
# a=1101, b=0000, cin=1, sum =1110, carry= 0
# a=1101, b=0001, cin=0, sum =1110, carry= 0
# a=1101, b=0001, cin=1, sum =1111, carry= 0
# a=1101, b=0010, cin=0, sum =1111, carry= 0
# a=1101, b=0010, cin=1, sum =0000, carry= 1
# a=1101, b=0011, cin=0, sum =0000, carry= 1
# a=1101, b=0011, cin=1, sum =0001, carry= 1
# a=1101, b=0100, cin=0, sum =0001, carry= 1
# a=1101, b=0100, cin=1, sum =0010, carry= 1
# a=1101, b=0101, cin=0, sum =0010, carry= 1
# a=1101, b=0101, cin=1, sum =0011, carry= 1
# a=1101, b=0110, cin=0, sum =0011, carry= 1
# a=1101, b=0110, cin=1, sum =0100, carry= 1
# a=1101, b=0111, cin=0, sum =0100, carry= 1
# a=1101, b=0111, cin=1, sum =0101, carry= 1
# a=1101, b=1000, cin=0, sum =0101, carry= 1
# a=1101, b=1000, cin=1, sum =0110, carry= 1
# a=1101, b=1001, cin=0, sum =0110, carry= 1
# a=1101, b=1001, cin=1, sum =0111, carry= 1
# a=1101, b=1010, cin=0, sum =0111, carry= 1
# a=1101, b=1010, cin=1, sum =1000, carry= 1
# a=1101, b=1011, cin=0, sum =1000, carry= 1
# a=1101, b=1011, cin=1, sum =1001, carry= 1
# a=1101, b=1100, cin=0, sum =1001, carry= 1
# a=1101, b=1100, cin=1, sum =1010, carry= 1
# a=1101, b=1101, cin=0, sum =1010, carry= 1
# a=1101, b=1101, cin=1, sum =1011, carry= 1
# a=1101, b=1110, cin=0, sum =1011, carry= 1
# a=1101, b=1110, cin=1, sum =1100, carry= 1
# a=1101, b=1111, cin=0, sum =1100, carry= 1
# a=1101, b=1111, cin=1, sum =1101, carry= 1
# a=1110, b=0000, cin=0, sum =1110, carry= 0
# a=1110, b=0000, cin=1, sum =1111, carry= 0
# a=1110, b=0001, cin=0, sum =1111, carry= 0
# a=1110, b=0001, cin=1, sum =0000, carry= 1
# a=1110, b=0010, cin=0, sum =0000, carry= 1
# a=1110, b=0010, cin=1, sum =0001, carry= 1
# a=1110, b=0011, cin=0, sum =0001, carry= 1
# a=1110, b=0011, cin=1, sum =0010, carry= 1
# a=1110, b=0100, cin=0, sum =0010, carry= 1
# a=1110, b=0100, cin=1, sum =0011, carry= 1
# a=1110, b=0101, cin=0, sum =0011, carry= 1
# a=1110, b=0101, cin=1, sum =0100, carry= 1
# a=1110, b=0110, cin=0, sum =0100, carry= 1
# a=1110, b=0110, cin=1, sum =0101, carry= 1
# a=1110, b=0111, cin=0, sum =0101, carry= 1
# a=1110, b=0111, cin=1, sum =0110, carry= 1
# a=1110, b=1000, cin=0, sum =0110, carry= 1
# a=1110, b=1000, cin=1, sum =0111, carry= 1
# a=1110, b=1001, cin=0, sum =0111, carry= 1
# a=1110, b=1001, cin=1, sum =1000, carry= 1
# a=1110, b=1010, cin=0, sum =1000, carry= 1
# a=1110, b=1010, cin=1, sum =1001, carry= 1
# a=1110, b=1011, cin=0, sum =1001, carry= 1
# a=1110, b=1011, cin=1, sum =1010, carry= 1
# a=1110, b=1100, cin=0, sum =1010, carry= 1
# a=1110, b=1100, cin=1, sum =1011, carry= 1
# a=1110, b=1101, cin=0, sum =1011, carry= 1
# a=1110, b=1101, cin=1, sum =1100, carry= 1
# a=1110, b=1110, cin=0, sum =1100, carry= 1
# a=1110, b=1110, cin=1, sum =1101, carry= 1
# a=1110, b=1111, cin=0, sum =1101, carry= 1
# a=1110, b=1111, cin=1, sum =1110, carry= 1
# a=1111, b=0000, cin=0, sum =1111, carry= 0
# a=1111, b=0000, cin=1, sum =0000, carry= 1
# a=1111, b=0001, cin=0, sum =0000, carry= 1
# a=1111, b=0001, cin=1, sum =0001, carry= 1
# a=1111, b=0010, cin=0, sum =0001, carry= 1
# a=1111, b=0010, cin=1, sum =0010, carry= 1
# a=1111, b=0011, cin=0, sum =0010, carry= 1
# a=1111, b=0011, cin=1, sum =0011, carry= 1
# a=1111, b=0100, cin=0, sum =0011, carry= 1
# a=1111, b=0100, cin=1, sum =0100, carry= 1
# a=1111, b=0101, cin=0, sum =0100, carry= 1
# a=1111, b=0101, cin=1, sum =0101, carry= 1
# a=1111, b=0110, cin=0, sum =0101, carry= 1
# a=1111, b=0110, cin=1, sum =0110, carry= 1
# a=1111, b=0111, cin=0, sum =0110, carry= 1
# a=1111, b=0111, cin=1, sum =0111, carry= 1
# a=1111, b=1000, cin=0, sum =0111, carry= 1
# a=1111, b=1000, cin=1, sum =1000, carry= 1
# a=1111, b=1001, cin=0, sum =1000, carry= 1
# a=1111, b=1001, cin=1, sum =1001, carry= 1
# a=1111, b=1010, cin=0, sum =1001, carry= 1
# a=1111, b=1010, cin=1, sum =1010, carry= 1
# a=1111, b=1011, cin=0, sum =1010, carry= 1
# a=1111, b=1011, cin=1, sum =1011, carry= 1
# a=1111, b=1100, cin=0, sum =1011, carry= 1
# a=1111, b=1100, cin=1, sum =1100, carry= 1
# a=1111, b=1101, cin=0, sum =1100, carry= 1
# a=1111, b=1101, cin=1, sum =1101, carry= 1
# a=1111, b=1110, cin=0, sum =1101, carry= 1
# a=1111, b=1110, cin=1, sum =1110, carry= 1
# a=1111, b=1111, cin=0, sum =1110, carry= 1
# a=1111, b=1111, cin=1, sum =1111, carry= 1
# End time: 21:43:35 on Feb 02,2023, Elapsed time: 0:00:21
# Errors: 0, Warnings: 2
